{
  "file": "/home/icaromutant/workspaces/vivo/sentinel-dialog-cherrin-cherrion/__tests__/Testes_Pre-Pago/Antecipar_Recarga/29t.02.09.js",
  "originalPhoneNumber": "11981145286",
  "newPhoneNumber": "11999267202",
  "apisResult": {
    "accBalances": [
      {
        "status": "active",
        "additionalData": [
          {
            "value": "ALIANZA_BA",
            "key": "billing"
          }
        ],
        "name": "Saldo atual",
        "totalBalance": {
          "units": "MON",
          "amount": 15.32,
          "maximum": 0
        },
        "validFor": {
          "endDateTime": "2018-09-21T02:59:59+00:00",
          "startDateTime": "2011-04-07T23:36:19+00:00"
        },
        "description": "Saldo atual"
      }
    ],
    "balances": [
      {
        "description": "Vivo Tudo Turbo R$7,99 - Franquia Internet",
        "inUse": true,
        "characteristic": [
          {
            "name": "lineType",
            "value": "pré"
          }
        ],
        "validFor": {
          "endDateTime": "2018-06-07T03:00:00+00:00",
          "startDateTime": "2016-01-01T02:00:00+00:00"
        },
        "mainPackage": true,
        "balanceType": "promocao",
        "type": "Vivo Turbo de 500 Megas de uma semana",
        "remainedAmount": {
          "units": "B",
          "amount": 536870912,
          "consumed": 0,
          "maximum": 536870912
        }
      }
    ],
    "buckets": [
      {
        "bucketType": "balance",
        "status": "active",
        "remainedAmount": {
          "units": "MON",
          "amount": 15.32,
          "maximum": 0
        },
        "additionalData": [
          {
            "value": "ALIANZA_BA",
            "key": "billing"
          }
        ],
        "validFor": {
          "endDateTime": "2018-09-21T02:59:59+00:00",
          "startDateTime": "2011-04-07T23:36:19+00:00"
        },
        "mode": -1,
        "name": "Saldo de Recarga"
      },
      {
        "bucketType": "voice",
        "status": "active",
        "remainedAmount": {
          "units": "MIN",
          "amount": 10000,
          "consumed": 0,
          "maximum": -1
        },
        "validFor": {
          "endDateTime": "2018-06-30T02:59:59+00:00",
          "startDateTime": "2018-06-22T03:00:00+00:00"
        },
        "mode": -1,
        "destinations": [
          "telefonica",
          "local",
          "national",
          "mobile"
        ],
        "name": "LigaÃ§Ãµes de Vivo p/ Vivo - Vivo Turbo"
      },
      {
        "bucketType": "SMS",
        "status": "active",
        "remainedAmount": {
          "units": "EVE",
          "amount": 10000,
          "consumed": 0,
          "maximum": -1
        },
        "validFor": {
          "endDateTime": "2018-06-30T02:59:59+00:00",
          "startDateTime": "2018-06-22T03:00:00+00:00"
        },
        "mode": -1,
        "destinations": [
          "landline",
          "local"
        ],
        "name": "SMS de Vivo p/ Outras Operadoras"
      }
    ],
    "products": [
      {
        "characteristic": [
          {
            "name": "platform",
            "value": "PrePago"
          },
          {
            "name": "billing",
            "value": "NSP"
          },
          {
            "name": "Internet",
            "value": "Franquia de 100MB por dia. Velocidade de Navegação com 4G"
          },
          {
            "name": "Minutos",
            "value": "R$1,25/minuto em horário reduzido. R$2,05/minuto para fixo, R$1,94/minuto para vivo, R$1,94 por minuto para outras operadoras em horário normal"
          },
          {
            "name": "SMS",
            "value": "R$0,52/mensagem"
          }
        ],
        "startDate": "2011-06-17T17:20:08+00:00",
        "id": "45321",
        "productType": "Plan",
        "name": "Vivo Dia"
      },
      {
        "status": "Active",
        "startDate": "2016-01-24T02:00:00+00:00",
        "productPrice": [
          {
            "price": {
              "units": "R$",
              "amount": "R$7,99/semana"
            },
            "priceType": "Real"
          }
        ],
        "name": "Vivo Turbo 500MB",
        "characteristic": [
          {
            "name": "Internet",
            "value": "500MB"
          },
          {
            "name": "SMS",
            "value": "ilimitado para Vivo"
          },
          {
            "name": "Min para Vivo",
            "value": "ilimitado"
          },
          {
            "name": "Min para outras operadoras",
            "value": "-"
          },
          {
            "name": "Outros benefícios",
            "value": "-"
          },
          {
            "name": "WhatsApp para envio de mensagens, vídeos e fotos",
            "value:": "ilimitado"
          }
        ],
        "productType": "Promotion",
        "terminationDate": "2018-06-20T03:00:00+00:00",
        "id": "TRI13"
      }
    ]
  }
}