{
  "file": "/home/icaromutant/workspaces/vivo/sentinel-dialog-cherrin-cherrion/__tests__/Testes_Pre-Pago/Contesta_Pacote/11.1.002.js",
  "originalPhoneNumber": "11981145271",
  "newPhoneNumber": "11992866129",
  "apisResult": {
    "accBalances": [
      {
        "status": "active",
        "additionalData": [
          {
            "value": "FO",
            "key": "billing"
          }
        ],
        "name": "Saldo atual",
        "totalBalance": {
          "units": "MON",
          "amount": 9.9,
          "maximum": 0
        },
        "validFor": {
          "endDateTime": "2018-07-13T02:59:59+00:00",
          "startDateTime": "2018-06-12T18:12:03+00:00"
        },
        "description": "Saldo de Recarga"
      }
    ],
    "balances": [
      {
        "description": "Vivo Tudo Turbo R$7,99 - Franquia Internet",
        "inUse": true,
        "characteristic": [
          {
            "name": "lineType",
            "value": "pré"
          }
        ],
        "validFor": {
          "endDateTime": "2018-06-07T03:00:00+00:00",
          "startDateTime": "2018-06-01T18:12:25+00:00"
        },
        "mainPackage": true,
        "balanceType": "promocao",
        "type": "Promoção de 500 megas de uma semana",
        "remainedAmount": {
          "units": "B",
          "amount": 536870912,
          "consumed": 0,
          "maximum": 536870912
        }
      }
    ],
    "buckets": [
      {
        "status": "active",
        "additionalData": [
          {
            "value": "FO",
            "key": "billing"
          }
        ],
        "name": "Saldo atual",
        "totalBalance": {
          "units": "MON",
          "amount": 9.9,
          "maximum": 0
        },
        "validFor": {
          "endDateTime": "2018-07-13T02:59:59+00:00",
          "startDateTime": "2018-06-12T18:12:03+00:00"
        },
        "description": "Saldo de Recarga"
      }
    ],
    "products": [
      {
        "characteristic": [
          {
            "name": "platform",
            "value": "PrePago"
          },
          {
            "name": "billing",
            "value": "NSP"
          },
          {
            "name": "Internet",
            "value": "Franquia de 100MB por dia. Velocidade de Navegação com 4G"
          },
          {
            "name": "Minutos",
            "value": "Ligações ilimitadas de Vivo para Vivo. 10 minutos de ligações para outras operadoras por dia."
          },
          {
            "name": "SMS",
            "value": "300 SMS para celular Vivo + 15 SMS para outras operadoras por R$ 1,49/dia"
          }
        ],
        "startDate": "2016-05-02T19:18:08+00:00",
        "id": "46307",
        "productType": "Plan",
        "name": "Plano Pre Diario"
      },
      {
        "status": "Active",
        "startDate": "2016-01-24T02:00:00+00:00",
        "productPrice": [
          {
            "price": {
              "units": "R$",
              "amount": "R$7,99/semana"
            },
            "priceType": "Real"
          }
        ],
        "name": "Vivo Turbo 500MB",
        "characteristic": [
          {
            "name": "Internet",
            "value": "500MB"
          },
          {
            "name": "SMS",
            "value": "ilimitado para Vivo"
          },
          {
            "name": "Min para Vivo",
            "value": "ilimitado"
          },
          {
            "name": "Min para outras operadoras",
            "value": "-"
          },
          {
            "name": "Outros benefícios",
            "value": "-"
          },
          {
            "name": "WhatsApp para envio de mensagens, vídeos e fotos",
            "value:": "ilimitado"
          }
        ],
        "productType": "Promotion",
        "terminationDate": "2018-06-20T03:00:00+00:00",
        "id": "TRI13"
      }
    ]
  }
}