{
  "file": "/home/icaromutant/workspaces/vivo/sentinel-dialog-cherrin-cherrion/__tests__/Testes_Controle/Consulta_Fatura/11.1.32.js",
  "originalPhoneNumber": "11997290000",
  "newPhoneNumber": "11994184350",
  "apisResult": {
    "accBalances": [
      {
        "name": "Saldo atual",
        "description": "Saldo de Recarga",
        "remainedAmount": 50,
        "totalBalance": {
          "amount": 50,
          "maximum": 0,
          "units": "MON"
        },
        "validFor": {
          "startDateTime": "2019-02-06T12:48:49+00:00",
          "endDateTime": "2019-06-07T02:59:59+00:00"
        },
        "status": "active",
        "additionalData": [
          {
            "key": "billing",
            "value": "ATLYS"
          }
        ]
      }
    ],
    "balances": [
      {
        "type": "Plano de 3.5 GB",
        "description": "Internet Mensal - Vivo Controle 3,5GB",
        "validFor": {
          "startDateTime": "2019-03-25T03:00:00+00:00",
          "endDateTime": "2019-04-25T02:59:59+00:00"
        },
        "remainedAmount": {
          "amount": 0,
          "consumed": 3758096384,
          "maximum": 3758096384,
          "units": "B"
        },
        "inUse": false,
        "mainPackage": true,
        "balanceType": "franquia",
        "characteristic": [
          {
            "name": "lineType",
            "value": "controle"
          }
        ]
      }
    ],
    "invoices": [
      {
        "id": "11997290000-0030253622-20190305",
        "href": "/invoices/11997290000-0030253622-20190305",
        "type": "Fatura",
        "country": "Brasil",
        "documentLinks": {
          "invoiceResourceType": [
            {
              "type": "pdf",
              "urls": "/invoices/11997290000-0030253622-20190305/files/pdf"
            },
            {
              "type": "image",
              "urls": "/invoices/11997290000-0030253622-20190305/files/image"
            },
            {
              "type": "email",
              "urls": "/invoices/11997290000-0030253622-20190305/files/email"
            }
          ]
        },
        "msisdn": "11997290000",
        "billingAccount": {
          "id": "0030253622",
          "name": "VIVOCTRLF28N"
        },
        "clientPlatformType": "ATY",
        "monthRef": "022019",
        "billingPeriod": {
          "codeCicle": "0L",
          "startDateTime": "2019-01-28T02:00:00Z",
          "endDateTime": "2019-02-27T03:00:00Z"
        },
        "adjustedInvoice": {
          "invoiceStatusAdjusted": "paid",
          "amountAdjustmentValue": "3.04",
          "totalAmountAdjusted": "0.00",
          "dueDateAdjusted": "2019-03-06T03:00:00Z",
          "documentLinks": {
            "invoiceResourceType": [
              {
                "type": "pdf",
                "urls": "/invoices/11997290000-0030253622-20190305/files/pdf?type=boleto"
              },
              {
                "type": "sms",
                "urls": "/invoices/11997290000-0030253622-20190305/files/sms"
              },
              {
                "type": "email",
                "urls": "/invoices/11997290000-0030253622-20190305/files/email"
              }
            ]
          }
        },
        "paymentMethod": {
          "name": "barcode"
        },
        "dueDate": "2019-03-05T03:00:00Z",
        "totalAmount": {
          "amount": "3.04",
          "units": "R$"
        },
        "status": "disputed"
      },
      {
        "id": "11997290000-0030253622-20190205",
        "href": "/invoices/11997290000-0030253622-20190205",
        "type": "Fatura",
        "country": "Brasil",
        "documentLinks": {
          "invoiceResourceType": [
            {
              "type": "pdf",
              "urls": "/invoices/11997290000-0030253622-20190205/files/pdf"
            },
            {
              "type": "image",
              "urls": "/invoices/11997290000-0030253622-20190205/files/image"
            },
            {
              "type": "email",
              "urls": "/invoices/11997290000-0030253622-20190205/files/email"
            }
          ]
        },
        "msisdn": "11997290000",
        "billingAccount": {
          "id": "0030253622",
          "name": "VIVOCTRLF28N"
        },
        "clientPlatformType": "ATY",
        "monthRef": "012019",
        "billingPeriod": {
          "codeCicle": "0L",
          "startDateTime": "2018-12-28T02:00:00Z",
          "endDateTime": "2019-01-27T02:00:00Z"
        },
        "adjustedInvoice": {
          "invoiceStatusAdjusted": "paid",
          "amountAdjustmentValue": "3.04",
          "totalAmountAdjusted": "0.00",
          "dueDateAdjusted": "2019-02-05T02:00:00Z",
          "documentLinks": {
            "invoiceResourceType": [
              {
                "type": "pdf",
                "urls": "/invoices/11997290000-0030253622-20190205/files/pdf?type=boleto"
              },
              {
                "type": "sms",
                "urls": "/invoices/11997290000-0030253622-20190205/files/sms"
              },
              {
                "type": "email",
                "urls": "/invoices/11997290000-0030253622-20190205/files/email"
              }
            ]
          }
        },
        "paymentMethod": {
          "name": "barcode"
        },
        "dueDate": "2019-02-05T02:00:00Z",
        "totalAmount": {
          "amount": "3.04",
          "units": "R$"
        },
        "status": "disputed"
      },
      {
        "id": "11997290000-0030253622-20190105",
        "href": "/invoices/11997290000-0030253622-20190105",
        "type": "Fatura",
        "country": "Brasil",
        "documentLinks": {
          "invoiceResourceType": [
            {
              "type": "pdf",
              "urls": "/invoices/11997290000-0030253622-20190105/files/pdf"
            },
            {
              "type": "image",
              "urls": "/invoices/11997290000-0030253622-20190105/files/image"
            },
            {
              "type": "email",
              "urls": "/invoices/11997290000-0030253622-20190105/files/email"
            }
          ]
        },
        "msisdn": "11997290000",
        "billingAccount": {
          "id": "0030253622",
          "name": "VIVOCTRLF28N"
        },
        "clientPlatformType": "ATY",
        "monthRef": "122018",
        "billingPeriod": {
          "codeCicle": "0L",
          "startDateTime": "2018-11-28T02:00:00Z",
          "endDateTime": "2018-12-27T02:00:00Z"
        },
        "adjustedInvoice": {
          "invoiceStatusAdjusted": "paid",
          "amountAdjustmentValue": "0.00",
          "totalAmountAdjusted": "59.99",
          "dueDateAdjusted": "2019-01-07T02:00:00Z",
          "documentLinks": {
            "invoiceResourceType": [
              {
                "type": "pdf",
                "urls": "/invoices/11997290000-0030253622-20190105/files/pdf?type=boleto"
              },
              {
                "type": "sms",
                "urls": "/invoices/11997290000-0030253622-20190105/files/sms"
              },
              {
                "type": "email",
                "urls": "/invoices/11997290000-0030253622-20190105/files/email"
              }
            ]
          }
        },
        "paymentMethod": {
          "name": "barcode"
        },
        "dueDate": "2019-04-26T02:00:00Z",
        "totalAmount": {
          "amount": "59.99",
          "units": "R$"
        },
        "status": "disputed"
      },
      {
        "id": "11997290000-0030253622-20181205",
        "href": "/invoices/11997290000-0030253622-20181205",
        "type": "Fatura",
        "country": "Brasil",
        "documentLinks": {
          "invoiceResourceType": [
            {
              "type": "pdf",
              "urls": "/invoices/11997290000-0030253622-20181205/files/pdf"
            },
            {
              "type": "image",
              "urls": "/invoices/11997290000-0030253622-20181205/files/image"
            },
            {
              "type": "email",
              "urls": "/invoices/11997290000-0030253622-20181205/files/email"
            }
          ]
        },
        "msisdn": "11997290000",
        "billingAccount": {
          "id": "0030253622",
          "name": "VIVOCTRLF28N"
        },
        "clientPlatformType": "ATY",
        "monthRef": "112018",
        "billingPeriod": {
          "codeCicle": "0L",
          "startDateTime": "2018-10-28T02:00:00Z",
          "endDateTime": "2018-11-27T02:00:00Z"
        },
        "adjustedInvoice": {
          "invoiceStatusAdjusted": "paid",
          "amountAdjustmentValue": "0.00",
          "totalAmountAdjusted": "59.99",
          "dueDateAdjusted": "2018-12-05T02:00:00Z",
          "documentLinks": {
            "invoiceResourceType": [
              {
                "type": "pdf",
                "urls": "/invoices/11997290000-0030253622-20181205/files/pdf?type=boleto"
              },
              {
                "type": "sms",
                "urls": "/invoices/11997290000-0030253622-20181205/files/sms"
              },
              {
                "type": "email",
                "urls": "/invoices/11997290000-0030253622-20181205/files/email"
              }
            ]
          }
        },
        "paymentMethod": {
          "name": "barcode"
        },
        "dueDate": "2018-04-26T02:00:00Z",
        "totalAmount": {
          "amount": "59.99",
          "units": "R$"
        },
        "status": "disputed"
      }
    ],
    "products": [
      {
        "id": "VIVOCTRLF28N",
        "name": "VIVO CTRL DIGITAL-3,5GB ILIM",
        "startDate": "2018-10-29T03:00:00+00:00",
        "productType": "Plan",
        "billingAccount": {
          "id": "0030253622"
        },
        "characteristic": [
          {
            "name": "platform",
            "value": "Controle"
          },
          {
            "name": "billing",
            "value": "ATY"
          },
          {
            "name": "Internet",
            "value": "Franquia de 3GB. Velocidade de navegação com 4G"
          },
          {
            "name": "Minutos",
            "value": "Ligações ilimitadas de Vivo para Vivo. Ilimitado local para outras operadoras. Ligações ilimitadas para fixos de outras operadoras"
          },
          {
            "name": "SMS",
            "value": "Ilimitado para qualquer operadora em todo o Brasil"
          },
          {
            "name": "Combo Digital",
            "value": "Combo Digital (Kantoo, Vivo GoRead)"
          }
        ],
        "status": "ATIVO"
      }
    ]
  }
}