{
  "file": "/home/icaromutant/workspaces/vivo/sentinel-dialog-cherrin-cherrion/__tests__/Testes_Pre-Pago/Consulta_Promocao/9.2.022.js",
  "originalPhoneNumber": "11987343838",
  "newPhoneNumber": "11996755101",
  "apisResult": {
    "accBalances": [
      {
        "status": "active",
        "additionalData": [
          {
            "value": "FO",
            "key": "billing"
          }
        ],
        "name": "Saldo atual",
        "totalBalance": {
          "units": "MON",
          "amount": 40,
          "maximum": 0
        },
        "validFor": {
          "endDateTime": "2018-07-28T02:59:59+00:00",
          "startDateTime": "2018-06-27T15:32:45+00:00"
        },
        "description": "Saldo de Recarga"
      }
    ],
    "balances": [
      {
        "description": " Vivo ON - 1.5GB ",
        "inUse": true,
        "characteristic": [
          {
            "name": "lineType",
            "value": "pré"
          }
        ],
        "validFor": {
          "endDateTime": "2018-07-13T02:59:59+00:00",
          "startDateTime": "2018-06-12T18:40:32+00:00"
        },
        "mainPackage": true,
        "balanceType": "promocao",
        "type": "Promoção de 1.5GB",
        "remainedAmount": {
          "units": "B",
          "amount": 1610612736,
          "consumed": 0,
          "maximum": 1610612736
        }
      },
      {
        "description": "INTERNET MOVEL DEGUSTACAO PRE",
        "inUse": true,
        "validFor": {
          "endDateTime": "2018-06-24T02:59:59+00:00",
          "startDateTime": "2018-06-19T14:25:17+00:00"
        },
        "mainPackage": false,
        "balanceType": "bonus",
        "type": "INTERNET MOVEL DEGUSTACAO PRE",
        "remainedAmount": {
          "units": "B",
          "amount": 31457280,
          "consumed": 0,
          "maximum": 31457280
        }
      }
    ],
    "buckets": [
      {
        "status": "active",
        "additionalData": [
          {
            "value": "FO",
            "key": "billing"
          }
        ],
        "name": "Saldo atual",
        "totalBalance": {
          "units": "MON",
          "amount": 40,
          "maximum": 0
        },
        "validFor": {
          "endDateTime": "2018-07-28T02:59:59+00:00",
          "startDateTime": "2018-06-27T15:32:45+00:00"
        },
        "description": "Saldo de Recarga"
      }
    ],
    "products": [
      {
        "characteristic": [
          {
            "name": "platform",
            "value": "PrePago"
          },
          {
            "name": "billing",
            "value": "NSP"
          },
          {
            "name": "Internet",
            "value": "Franquia de 100MB por dia. Velocidade de Navegação com 4G"
          },
          {
            "name": "Minutos",
            "value": "R$1,25/minuto em horário reduzido. R$2,05/minuto para fixo, R$1,94/minuto para vivo, R$1,94 por minuto para outras operadoras em horário normal"
          },
          {
            "name": "SMS",
            "value": "R$0,52/mensagem"
          }
        ],
        "startDate": "2011-06-17T17:20:08+00:00",
        "id": "45321",
        "productType": "Plan",
        "name": "Vivo Dia"
      },
      {
        "status": "Active",
        "startDate": "2016-04-25T03:00:00+00:00",
        "productPrice": [
          {
            "price": {
              "units": "R$",
              "amount": "R$19,90 na adesão"
            },
            "priceType": "Real"
          }
        ],
        "name": "Vivo ON",
        "characteristic": [
          {
            "name": "Internet",
            "value": "25MB / R$5,00"
          },
          {
            "name": "SMS",
            "value": "ilimitado / R$15,00"
          },
          {
            "name": "Min para Vivo",
            "value": "25min / R$5,00"
          },
          {
            "name": "Outros benefícios",
            "value": "A partir de R$5,00 bônus de internet e voz"
          }
        ],
        "productType": "Promotion",
        "terminationDate": "2018-07-12T03:00:00+00:00",
        "id": "FPR10"
      }
    ]
  }
}