{
  "file": "/home/icaromutant/workspaces/vivo/sentinel-dialog-cherrin-cherrion/__tests__/Testes_Pre-Pago/RecargaNaoCaiu/19.04.02.js",
  "originalPhoneNumber": "11981145292",
  "newPhoneNumber": "11999681396",
  "apisResult": {
    "accBalances": [
      {
        "status": "active",
        "additionalData": [
          {
            "value": "ALIANZA_BA",
            "key": "billing"
          }
        ],
        "remainedAmount": {
          "units": "MON",
          "amount": 15.43,
          "maximum": 0
        },
        "description": "Saldo atual",
        "validFor": {
          "endDateTime": "2018-11-24T01:59:59+00:00",
          "startDateTime": "2011-04-07T23:36:19+00:00"
        },
        "name": "Saldo atual"
      }
    ],
    "balances": [],
    "buckets": [
      {
        "bucketType": "balance",
        "status": "active",
        "remainedAmount": {
          "units": "MON",
          "amount": 15.43,
          "maximum": 0
        },
        "additionalData": [
          {
            "value": "ALIANZA_BA",
            "key": "billing"
          }
        ],
        "validFor": {
          "endDateTime": "2018-09-21T02:59:59+00:00",
          "startDateTime": "2011-04-07T23:36:19+00:00"
        },
        "mode": -1,
        "name": "Saldo de Recarga"
      },
      {
        "bucketType": "voice",
        "status": "active",
        "remainedAmount": {
          "units": "MIN",
          "amount": 10000,
          "consumed": 0,
          "maximum": -1
        },
        "validFor": {
          "endDateTime": "2018-06-30T02:59:59+00:00",
          "startDateTime": "2018-06-22T03:00:00+00:00"
        },
        "mode": -1,
        "destinations": [
          "telefonica",
          "local",
          "national",
          "mobile"
        ],
        "name": "LigaÃ§Ãµes de Vivo p/ Vivo - Vivo Turbo"
      },
      {
        "bucketType": "SMS",
        "status": "active",
        "remainedAmount": {
          "units": "EVE",
          "amount": 10000,
          "consumed": 0,
          "maximum": -1
        },
        "validFor": {
          "endDateTime": "2018-06-30T02:59:59+00:00",
          "startDateTime": "2018-06-22T03:00:00+00:00"
        },
        "mode": -1,
        "destinations": [
          "telefonica",
          "local"
        ],
        "name": "SMS de Vivo p/ Vivo - Vivo Turbo"
      }
    ],
    "products": []
  }
}