{
  "file": "/home/icaromutant/workspaces/vivo/sentinel-dialog-cherrin-cherrion/__tests__/Testes_Pre-Pago/Consulta_Bonus/11.2.007.js",
  "originalPhoneNumber": "11996800034",
  "newPhoneNumber": "11993413568",
  "apisResult": {
    "accBalances": [
      {
        "status": "active",
        "additionalData": [
          {
            "value": "FO",
            "key": "billing"
          }
        ],
        "name": "Saldo atual",
        "totalBalance": {
          "units": "MON",
          "amount": 9.12,
          "maximum": 0
        },
        "validFor": {
          "endDateTime": "2018-07-28T02:59:59+00:00",
          "startDateTime": "2018-06-12T18:39:41+00:00"
        },
        "description": "Saldo de Recarga"
      }
    ],
    "balances": [
      {
        "description": "Vivo ON - Bonus 125 MB",
        "inUse": false,
        "characteristic": [
          {
            "name": "lineType",
            "value": "pré"
          }
        ],
        "validFor": {
          "endDateTime": "2018-07-13T02:59:59+00:00",
          "startDateTime": "2018-06-12T18:40:32+00:00"
        },
        "mainPackage": false,
        "balanceType": "promocao",
        "type": "Vivo ON - Bonus 125 MB",
        "remainedAmount": {
          "units": "B",
          "amount": 131072000,
          "consumed": 0,
          "maximum": 131072000
        }
      },
      {
        "description": "Vivo ON - Bonus 50 MB",
        "inUse": false,
        "validFor": {
          "endDateTime": "2018-07-13T02:59:59+00:00",
          "startDateTime": "2018-06-12T18:41:04+00:00"
        },
        "mainPackage": true,
        "balanceType": "promocao",
        "type": "Vivo ON - Bonus 50 MB",
        "remainedAmount": {
          "units": "B",
          "amount": 52428800,
          "consumed": 0,
          "maximum": 52428800
        }
      },
      {
        "description": "PACOTE AVULSO DE INTERNET 400MB 4G PRE-PAGO",
        "inUse": true,
        "validFor": {
          "endDateTime": "2018-06-20T02:59:59+00:00",
          "startDateTime": "2018-06-12T19:44:36+00:00"
        },
        "mainPackage": false,
        "balanceType": "pacote",
        "type": "PACOTE AVULSO DE INTERNET 400MB 4G PRE-PAGO",
        "remainedAmount": {
          "units": "B",
          "amount": 838860800,
          "consumed": 0,
          "maximum": 838860800
        }
      },
      {
        "description": "PACOTE AVULSO DE INTERNET 400MB 4G PRE-PAGO",
        "inUse": true,
        "validFor": {
          "endDateTime": "2018-06-20T02:59:59+00:00",
          "startDateTime": "2018-06-12T19:44:36+00:00"
        },
        "mainPackage": false,
        "balanceType": "pacote",
        "type": "PACOTE AVULSO DE INTERNET 400MB 4G PRE-PAGO",
        "remainedAmount": {
          "units": "B",
          "amount": 419430400,
          "consumed": 0,
          "maximum": 419430400
        }
      }
    ],
    "buckets": [
      {
        "status": "active",
        "additionalData": [
          {
            "value": "FO",
            "key": "billing"
          }
        ],
        "name": "Saldo atual",
        "totalBalance": {
          "units": "MON",
          "amount": 9.12,
          "maximum": 0
        },
        "validFor": {
          "endDateTime": "2018-07-28T02:59:59+00:00",
          "startDateTime": "2018-06-12T18:39:41+00:00"
        },
        "description": "Saldo de Recarga"
      }
    ],
    "products": [
      {
        "status": "Active",
        "startDate": "2016-04-25T03:00:00+00:00",
        "productPrice": [
          {
            "price": {
              "units": "R$",
              "amount": "R$19,90 na adesão"
            },
            "priceType": "Real"
          }
        ],
        "name": "Vivo ON",
        "characteristic": [
          {
            "name": "Internet",
            "value": "25MB / R$5,00"
          },
          {
            "name": "SMS",
            "value": "ilimitado / R$15,00"
          },
          {
            "name": "Min para Vivo",
            "value": "25min / R$5,00"
          },
          {
            "name": "Outros benefícios",
            "value": "A partir de R$5,00 bônus de internet e voz"
          }
        ],
        "productType": "Promotion",
        "terminationDate": "2018-07-12T03:00:00+00:00",
        "id": "FPR10"
      }
    ]
  }
}