{
  "file": "/home/icaromutant/workspaces/vivo/sentinel-dialog-cherrin-cherrion/__tests__/Testes_Pre-Pago/Contesta_Promocao/11.04.05.js",
  "originalPhoneNumber": "11981145268",
  "newPhoneNumber": "11991252251",
  "apisResult": {
    "accBalances": [
      {
        "status": "active",
        "additionalData": [
          {
            "value": "FO",
            "key": "billing"
          }
        ],
        "name": "Saldo atual",
        "totalBalance": {
          "units": "MON",
          "amount": 14.9,
          "maximum": 0
        },
        "validFor": {
          "endDateTime": "2018-07-13T02:59:59+00:00",
          "startDateTime": "2018-06-12T18:12:03+00:00"
        },
        "description": "Saldo de Recarga"
      }
    ],
    "balances": [
      {
        "description": "Vivo Tudo Turbo R$14,99 - Franquia Internet(",
        "inUse": true,
        "characteristic": [
          {
            "name": "lineType",
            "value": "pré"
          }
        ],
        "validFor": {
          "endDateTime": "2018-06-07T03:00:00+00:00",
          "startDateTime": "2018-06-01T18:12:25+00:00"
        },
        "mainPackage": true,
        "balanceType": "promocao",
        "type": "Promoção de 2 Gb de uma semana",
        "remainedAmount": {
          "units": "B",
          "amount": 2147483648,
          "consumed": 0,
          "maximum": 2147483648
        }
      },
      {
        "description": "Vivo Internet Fim de Semana",
        "inUse": false,
        "validFor": {
          "endDateTime": "2018-08-17T02:59:59+00:00",
          "startDateTime": "2018-08-10T03:52:48+00:00"
        },
        "mainPackage": false,
        "balanceType": "pacote",
        "type": "Vivo Internet Fim de Semana",
        "remainedAmount": {
          "units": "B",
          "amount": 1073741824,
          "consumed": 0,
          "maximum": 1073741824
        }
      },
      {
        "description": "Vivo Internet Noite",
        "inUse": false,
        "validFor": {
          "endDateTime": "2018-08-18T02:59:59+00:00",
          "startDateTime": "2018-08-10T03:53:14+00:00"
        },
        "mainPackage": false,
        "balanceType": "pacote",
        "type": "Vivo Internet Noite",
        "remainedAmount": {
          "units": "B",
          "amount": 1073741824,
          "consumed": 0,
          "maximum": 1073741824
        }
      }
    ],
    "buckets": [
      {
        "status": "active",
        "additionalData": [
          {
            "value": "FO",
            "key": "billing"
          }
        ],
        "name": "Saldo atual",
        "totalBalance": {
          "units": "MON",
          "amount": 14.9,
          "maximum": 0
        },
        "validFor": {
          "endDateTime": "2018-07-13T02:59:59+00:00",
          "startDateTime": "2018-06-12T18:12:03+00:00"
        },
        "description": "Saldo de Recarga"
      }
    ],
    "products": [
      {
        "characteristic": [
          {
            "name": "platform",
            "value": "PrePago"
          },
          {
            "name": "billing",
            "value": "NSP"
          },
          {
            "name": "Internet",
            "value": "Franquia de 100MB por dia. Velocidade de Navegação com 4G"
          },
          {
            "name": "Minutos",
            "value": "Ligações ilimitadas de Vivo para Vivo. 10 minutos de ligações para outras operadoras por dia."
          },
          {
            "name": "SMS",
            "value": "300 SMS para celular Vivo + 15 SMS para outras operadoras por R$ 1,49/dia"
          }
        ],
        "startDate": "2016-05-02T19:18:08+00:00",
        "id": "46307",
        "productType": "Plan",
        "name": "Plano Pre Diario"
      },
      {
        "status": "Active",
        "startDate": "2016-01-24T02:00:00+00:00",
        "productPrice": [
          {
            "price": {
              "units": "R$",
              "amount": "R$14,99/semana"
            },
            "priceType": "Real"
          }
        ],
        "name": "Vivo Turbo 2GB",
        "characteristic": [
          {
            "name": "Internet",
            "value": "2GB"
          },
          {
            "name": "SMS",
            "value": "ilimitado para Vivo"
          },
          {
            "name": "Min para Vivo",
            "value": "ilimitado"
          },
          {
            "name": "Min para outras operadoras",
            "value": "40min para celulares locais"
          },
          {
            "name": "Outros benefícios",
            "value": "NBA, GoRead e Vivo Bem"
          },
          {
            "name": "WhatsApp para envio de mensagens, vídeos e fotos",
            "value:": "ilimitado"
          }
        ],
        "productType": "Promotion",
        "terminationDate": "2018-06-20T03:00:00+00:00",
        "id": "TRI19"
      }
    ]
  }
}