{
  "file": "/home/icaromutant/workspaces/vivo/sentinel-dialog-cherrin-cherrion/__tests__/Testes_Pre-Pago/Consulta_Bonus/11.2.031.js",
  "originalPhoneNumber": "11996969888",
  "newPhoneNumber": "11994041489",
  "apisResult": {
    "accBalances": [
      {
        "status": "active",
        "additionalData": [
          {
            "value": "FO",
            "key": "billing"
          }
        ],
        "name": "Saldo atual",
        "totalBalance": {
          "units": "MON",
          "amount": 33.82,
          "maximum": 0
        },
        "validFor": {
          "endDateTime": "2018-09-12T02:59:59+00:00",
          "startDateTime": "2018-06-12T23:25:08+00:00"
        },
        "description": "Saldo de Recarga"
      }
    ],
    "balances": [
      {
        "description": "PACOTE AVULSO DE INTERNET 150MB 4G PRE-PAGO",
        "inUse": true,
        "characteristic": [
          {
            "name": "lineType",
            "value": "pré"
          }
        ],
        "validFor": {
          "endDateTime": "2018-06-20T02:59:59+00:00",
          "startDateTime": "2018-06-12T23:34:01+00:00"
        },
        "mainPackage": true,
        "balanceType": "pacote",
        "type": "PACOTE AVULSO DE INTERNET 150MB 4G PRE-PAGO",
        "remainedAmount": {
          "units": "B",
          "amount": 157286400,
          "consumed": 0,
          "maximum": 157286400
        }
      },
      {
        "description": "INTERNET MOVEL DEGUSTACAO PRE",
        "inUse": true,
        "validFor": {
          "endDateTime": "2018-06-24T02:59:59+00:00",
          "startDateTime": "2018-06-19T14:25:17+00:00"
        },
        "mainPackage": false,
        "balanceType": "bonus",
        "type": "INTERNET MOVEL DEGUSTACAO PRE",
        "remainedAmount": {
          "units": "B",
          "amount": 31457280,
          "consumed": 0,
          "maximum": 31457280
        }
      }
    ],
    "buckets": [
      {
        "status": "active",
        "additionalData": [
          {
            "value": "FO",
            "key": "billing"
          }
        ],
        "name": "Saldo atual",
        "totalBalance": {
          "units": "MON",
          "amount": 33.82,
          "maximum": 0
        },
        "validFor": {
          "endDateTime": "2018-09-12T02:59:59+00:00",
          "startDateTime": "2018-06-12T23:25:08+00:00"
        },
        "description": "Saldo de Recarga"
      }
    ],
    "products": []
  }
}