{
  "file": "/home/icaromutant/workspaces/vivo/sentinel-dialog-cherrin-cherrion/__tests__/Testes_Pre-Pago/NaoConsegueEfetuarChamadas/NaoLigaSemVozSemRecarga/20.02.05.js",
  "originalPhoneNumber": "11981145299",
  "newPhoneNumber": "11998697701",
  "apisResult": {
    "accBalances": [
      {
        "status": "active",
        "additionalData": [
          {
            "value": "ALIANZA_BA",
            "key": "billing"
          }
        ],
        "remainedAmount": 25,
        "totalBalance": {
          "units": "MON",
          "amount": 25,
          "maximum": 0
        },
        "description": "Saldo atual",
        "validFor": {
          "endDateTime": "2018-09-21T02:59:59+00:00",
          "startDateTime": "2011-04-07T23:36:19+00:00"
        },
        "name": "Saldo atual"
      }
    ],
    "buckets": [
      {
        "status": "active",
        "additionalData": [
          {
            "value": "FO",
            "key": "billing"
          }
        ],
        "name": "Saldo atual",
        "totalBalance": {
          "units": "MON",
          "amount": 19.9,
          "maximum": 0
        },
        "validFor": {
          "endDateTime": "2018-06-20T03:00:00+00:00",
          "startDateTime": "2016-01-24T02:00:00+00:00"
        },
        "description": "Saldo de Recarga"
      }
    ]
  }
}