{
  "file": "/home/icaromutant/workspaces/vivo/sentinel-dialog-cherrin-cherrion/__tests__/Testes_Pre-Pago/Consulta_Plano/29k.010.js",
  "originalPhoneNumber": "11996143692",
  "newPhoneNumber": "11998238978",
  "apisResult": {
    "accBalances": [
      {
        "status": "active",
        "additionalData": [
          {
            "value": "FO",
            "key": "billing"
          }
        ],
        "name": "Saldo atual",
        "totalBalance": {
          "units": "MON",
          "amount": 30.01,
          "maximum": 0
        },
        "validFor": {
          "endDateTime": "2018-07-28T02:59:59+00:00",
          "startDateTime": "2018-06-27T15:32:45+00:00"
        },
        "description": "Saldo de Recarga"
      }
    ],
    "balances": [
      {
        "description": "Vivo Turbo R$8,99 - Franquia Internet ",
        "inUse": false,
        "characteristic": [
          {
            "name": "lineType",
            "value": "pré"
          }
        ],
        "validFor": {
          "endDateTime": "2018-06-20T03:00:00+00:00",
          "startDateTime": "2018-06-12T18:12:25+00:00"
        },
        "mainPackage": true,
        "balanceType": "promocao",
        "type": "Vivo Turbo de 200 minutos de uma semana",
        "remainedAmount": {
          "units": "B",
          "amount": 1073741824,
          "consumed": 0,
          "maximum": 1073741824
        }
      }
    ],
    "buckets": [
      {
        "status": "active",
        "additionalData": [
          {
            "value": "FO",
            "key": "billing"
          }
        ],
        "name": "Saldo atual",
        "totalBalance": {
          "units": "MON",
          "amount": 30.01,
          "maximum": 0
        },
        "validFor": {
          "endDateTime": "2018-07-28T02:59:59+00:00",
          "startDateTime": "2018-06-27T15:32:45+00:00"
        },
        "description": "Saldo de Recarga"
      }
    ],
    "products": [
      {
        "characteristic": [
          {
            "name": "platform",
            "value": "PrePago"
          },
          {
            "name": "billing",
            "value": "NSP"
          },
          {
            "name": "Internet",
            "value": "Franquia de 100MB por dia. Velocidade de Navegação com 4G"
          },
          {
            "name": "Minutos",
            "value": "Ligações ilimitadas de Vivo para Vivo. 10 minutos de ligações para outras operadoras por dia."
          },
          {
            "name": "SMS",
            "value": "300 SMS para celular Vivo + 15 SMS para outras operadoras por R$ 1,49/dia"
          }
        ],
        "startDate": "2016-05-02T19:18:08+00:00",
        "id": "46307",
        "productType": "Plan",
        "name": "Plano Pre Diario"
      },
      {
        "status": "Active",
        "startDate": "2016-01-24T02:00:00+00:00",
        "productPrice": [
          {
            "price": {
              "units": "R$",
              "amount": "R$8,99/semana"
            },
            "priceType": "Real"
          }
        ],
        "name": "Vivo Turbo 200min",
        "characteristic": [
          {
            "name": "Internet",
            "value": "-"
          },
          {
            "name": "SMS",
            "value": "ilimitado para Vivo"
          },
          {
            "name": "Min para Vivo",
            "value": "ilimitado"
          },
          {
            "name": "Min para outras operadoras",
            "value": "200min"
          },
          {
            "name": "Outros benefícios",
            "value": "-"
          },
          {
            "name": "WhatsApp para envio de mensagens, vídeos e fotos",
            "value:": "ilimitado"
          }
        ],
        "productType": "Promotion",
        "terminationDate": "2018-06-20T03:00:00+00:00",
        "id": "TRI20"
      }
    ]
  }
}