{
  "file": "/home/icaromutant/workspaces/vivo/sentinel-dialog-cherrin-cherrion/__tests__/Testes_Pre-Pago/Consulta_Plano_Com_Promocao_Vencida/8.4.057.js",
  "originalPhoneNumber": "11999999919",
  "newPhoneNumber": "11998167280",
  "apisResult": {
    "accBalances": [],
    "balances": [],
    "buckets": [],
    "products": [
      {
        "characteristic": [
          {
            "name": "platform",
            "value": "PrePago"
          },
          {
            "name": "billing",
            "value": "NSP"
          },
          {
            "name": "Internet",
            "value": "Franquia de 100MB por dia. Velocidade de Navegação com 4G"
          },
          {
            "name": "Minutos",
            "value": "R$1,25/minuto em horário reduzido. R$2,05/minuto para fixo, R$1,94/minuto para vivo, R$1,94 por minuto para outras operadoras em horário normal"
          },
          {
            "name": "SMS",
            "value": "R$0,52/mensagem"
          }
        ],
        "startDate": "2011-06-17T17:20:08+00:00",
        "id": "45321",
        "productType": "Plan",
        "name": "Vivo Dia"
      },
      {
        "status": "Suspend",
        "startDate": "2016-01-24T02:00:00+00:00",
        "productPrice": [
          {
            "price": {
              "units": "R$",
              "amount": "R$9,99/semana"
            },
            "priceType": "Real"
          }
        ],
        "name": "Vivo Turbo 1GB",
        "characteristic": [
          {
            "name": "Internet",
            "value": "1GB"
          },
          {
            "name": "SMS",
            "value": "ilimitado para Vivo"
          },
          {
            "name": "Min para Vivo",
            "value": "ilimitado"
          },
          {
            "name": "Min para outras operadoras",
            "value": "-"
          },
          {
            "name": "Outros benefícios",
            "value": "NBA e GoRead"
          },
          {
            "name": "WhatsApp para envio de mensagens, vídeos e fotos",
            "value:": "ilimitado"
          }
        ],
        "productType": "Promotion",
        "terminationDate": "2018-06-20T03:00:00+00:00",
        "id": "TRI10"
      }
    ]
  }
}