{
  "file": "/home/icaromutant/workspaces/vivo/sentinel-dialog-cherrin-cherrion/__tests__/Testes_Pre-Pago/Consulta_Plano/29k.034.js",
  "originalPhoneNumber": "11981145280",
  "newPhoneNumber": "11994999980",
  "apisResult": {
    "accBalances": [
      {
        "status": "active",
        "additionalData": [
          {
            "value": "FO",
            "key": "billing"
          }
        ],
        "name": "Saldo atual",
        "totalBalance": {
          "units": "MON",
          "amount": 14.9,
          "maximum": 0
        },
        "validFor": {
          "endDateTime": "2018-07-08T02:59:59+00:00",
          "startDateTime": "2018-06-01T18:40:32+00:00"
        },
        "description": "Saldo de Recarga"
      }
    ],
    "balances": [
      {
        "description": "Vivo Tudo Turbo R$14,99 - Franquia Internet",
        "inUse": true,
        "characteristic": [
          {
            "name": "lineType",
            "value": "pré"
          }
        ],
        "validFor": {
          "endDateTime": "2018-07-08T02:59:59+00:00",
          "startDateTime": "2018-06-01T18:40:32+00:00"
        },
        "mainPackage": true,
        "balanceType": "promocao",
        "type": "Promoção de 2 Gb de uma semana",
        "remainedAmount": {
          "units": "B",
          "amount": 1288490189,
          "consumed": 0,
          "maximum": 1288490189
        }
      }
    ],
    "buckets": [
      {
        "status": "active",
        "additionalData": [
          {
            "value": "FO",
            "key": "billing"
          }
        ],
        "name": "Saldo atual",
        "totalBalance": {
          "units": "MON",
          "amount": 14.9,
          "maximum": 0
        },
        "validFor": {
          "endDateTime": "2018-07-08T02:59:59+00:00",
          "startDateTime": "2018-06-01T18:40:32+00:00"
        },
        "description": "Saldo de Recarga"
      }
    ],
    "products": [
      {
        "characteristic": [
          {
            "name": "platform",
            "value": "PrePago"
          },
          {
            "name": "billing",
            "value": "NSP"
          },
          {
            "name": "Internet",
            "value": "Franquia de 100MB por dia. Velocidade de Navegação com 4G"
          },
          {
            "name": "Minutos",
            "value": "R$1,65/minuto na área de cobertura. Adicional por chamada realizada ou recebida fora da área de registro R$1,65."
          },
          {
            "name": "SMS",
            "value": "R$0,52/mensagem"
          }
        ],
        "startDate": "2010-01-11T18:57:48+00:00",
        "id": "50125",
        "productType": "Plan",
        "name": "Vivo Escolha"
      },
      {
        "status": "Active",
        "startDate": "2016-01-24T02:00:00+00:00",
        "productPrice": [
          {
            "price": {
              "units": "R$",
              "amount": "R$14,99/semana"
            },
            "priceType": "Real"
          }
        ],
        "name": "Vivo Turbo 2GB",
        "characteristic": [
          {
            "name": "Internet",
            "value": "2GB"
          },
          {
            "name": "SMS",
            "value": "ilimitado para Vivo"
          },
          {
            "name": "Min para Vivo",
            "value": "ilimitado"
          },
          {
            "name": "Min para outras operadoras",
            "value": "40min para celulares locais"
          },
          {
            "name": "Outros benefícios",
            "value": "NBA, GoRead e Vivo Bem"
          },
          {
            "name": "WhatsApp para envio de mensagens, vídeos e fotos",
            "value:": "ilimitado"
          }
        ],
        "productType": "Promotion",
        "terminationDate": "2018-06-20T03:00:00+00:00",
        "id": "TRI19"
      }
    ]
  }
}