{
  "file": "/home/icaromutant/workspaces/vivo/sentinel-dialog-cherrin-cherrion/__tests__/Testes_Pre-Pago/Transfere_URA/23.02.04.js",
  "originalPhoneNumber": "11942507729",
  "newPhoneNumber": "11998453515",
  "apisResult": {
    "accBalances": [
      {
        "status": "active",
        "additionalData": [
          {
            "value": "FO",
            "key": "billing"
          }
        ],
        "name": "Saldo atual",
        "totalBalance": {
          "units": "MON",
          "amount": 2.01,
          "maximum": 0
        },
        "validFor": {
          "endDateTime": "2017-12-13T02:59:59+00:00",
          "startDateTime": "2016-06-12T18:17:59+00:00"
        },
        "description": "Saldo de Recarga"
      }
    ],
    "balances": [
      {
        "description": "Vivo Tudo Turbo R$7,99 - Franquia Internet",
        "inUse": true,
        "characteristic": [
          {
            "name": "lineType",
            "value": "pré"
          }
        ],
        "validFor": {
          "endDateTime": "2018-06-20T03:00:00+00:00",
          "startDateTime": "2018-06-12T18:18:45+00:00"
        },
        "mainPackage": true,
        "balanceType": "promocao",
        "type": "Promoção de 500 MB",
        "remainedAmount": {
          "units": "B",
          "amount": 524288000,
          "consumed": 0,
          "maximum": 524288000
        }
      }
    ],
    "buckets": [
      {
        "status": "active",
        "additionalData": [
          {
            "value": "FO",
            "key": "billing"
          }
        ],
        "name": "Saldo atual",
        "totalBalance": {
          "units": "MON",
          "amount": 2.01,
          "maximum": 0
        },
        "validFor": {
          "endDateTime": "2017-12-13T02:59:59+00:00",
          "startDateTime": "2016-06-12T18:17:59+00:00"
        },
        "description": "Saldo de Recarga"
      }
    ],
    "products": [
      {
        "status": "Active",
        "startDate": "2016-01-24T02:00:00+00:00",
        "productPrice": [
          {
            "price": {
              "units": "R$",
              "amount": "R$7,99/semana"
            },
            "priceType": "Real"
          }
        ],
        "name": "Vivo Turbo 300MB",
        "characteristic": [
          {
            "name": "Internet",
            "value": "300MB"
          },
          {
            "name": "SMS",
            "value": "ilimitado para Vivo"
          },
          {
            "name": "Min para Vivo",
            "value": "ilimitado"
          },
          {
            "name": "Min para outras operadoras",
            "value": "-"
          },
          {
            "name": "Outros benefícios",
            "value": "-"
          }
        ],
        "productType": "Promotion",
        "terminationDate": "2018-06-20T03:00:00+00:00",
        "id": "TRI13"
      }
    ]
  }
}