{
  "file": "/home/icaromutant/workspaces/vivo/sentinel-dialog-cherrin-cherrion/__tests__/Testes_Pre-Pago/Consulta_Plano_Com_Promocao_Vencida/8.4.031.js",
  "originalPhoneNumber": "11999999910",
  "newPhoneNumber": "11990145171",
  "apisResult": {
    "accBalances": [],
    "balances": [],
    "buckets": [],
    "products": [
      {
        "characteristic": [
          {
            "name": "platform",
            "value": "PrePago"
          },
          {
            "name": "billing",
            "value": "NSP"
          },
          {
            "name": "Internet",
            "value": "Franquia de 100MB por dia. Velocidade de Navegação com 4G"
          },
          {
            "name": "Minutos",
            "value": "R$1,99/minuto na área de cobertura. Adicional por chamada realizada ou recebida fora da área de registro R$1,99."
          },
          {
            "name": "SMS",
            "value": "R$0,52/mensagem"
          }
        ],
        "startDate": "2010-01-11T18:57:48+00:00",
        "id": "50125",
        "productType": "Plan",
        "name": "Vivo Toda Hora"
      },
      {
        "status": "Suspend",
        "startDate": "2016-01-24T02:00:00+00:00",
        "productPrice": [
          {
            "price": {
              "units": "R$",
              "amount": "R$8,99/semana"
            },
            "priceType": "Real"
          }
        ],
        "name": "Vivo Turbo 200min",
        "characteristic": [
          {
            "name": "Internet",
            "value": "-"
          },
          {
            "name": "SMS",
            "value": "ilimitado para Vivo"
          },
          {
            "name": "Min para Vivo",
            "value": "ilimitado"
          },
          {
            "name": "Min para outras operadoras",
            "value": "200min"
          },
          {
            "name": "Outros benefícios",
            "value": "-"
          },
          {
            "name": "WhatsApp para envio de mensagens, vídeos e fotos",
            "value:": "ilimitado"
          }
        ],
        "productType": "Promotion",
        "terminationDate": "2018-06-20T03:00:00+00:00",
        "id": "TRI20"
      }
    ]
  }
}