{
  "file": "/home/icaromutant/workspaces/vivo/sentinel-dialog-cherrin-cherrion/__tests__/Testes_Pre-Pago/SaldoVencido/21.02.07.js",
  "originalPhoneNumber": "11996121460",
  "newPhoneNumber": "11992515248",
  "apisResult": {
    "accBalances": [
      {
        "status": "active",
        "additionalData": [
          {
            "value": "FO",
            "key": "billing"
          }
        ],
        "remainedAmount": 48.52,
        "totalBalance": {
          "units": "MON",
          "amount": 48.52,
          "maximum": 0
        },
        "description": "Saldo atual",
        "validFor": {
          "endDateTime": "2018-09-16T01:59:59+00:00",
          "startDateTime": "2018-06-15T20:34:22+00:00"
        },
        "name": "Saldo atual"
      }
    ],
    "buckets": [
      {
        "status": "active",
        "additionalData": [
          {
            "value": "FO",
            "key": "billing"
          }
        ],
        "remainedAmount": 48.52,
        "totalBalance": {
          "units": "MON",
          "amount": 48.52,
          "maximum": 0
        },
        "description": "Saldo atual",
        "validFor": {
          "endDateTime": "2018-09-16T01:59:59+00:00",
          "startDateTime": "2018-06-15T20:34:22+00:00"
        },
        "name": "Saldo atual"
      }
    ]
  }
}