{
  "file": "/home/icaromutant/workspaces/vivo/sentinel-dialog-cherrin-cherrion/__tests__/Testes_Pre-Pago/Conhecer_PROMOCAO_Especifica/28.4.21.js",
  "originalPhoneNumber": "11999513550",
  "newPhoneNumber": "11995025510",
  "apisResult": {
    "accBalances": [
      {
        "status": "active",
        "additionalData": [
          {
            "value": "FO",
            "key": "billing"
          }
        ],
        "remainedAmount": 85.01,
        "totalBalance": {
          "units": "MON",
          "amount": 85.01,
          "maximum": 0
        },
        "description": "Saldo de Recarga",
        "validFor": {
          "endDateTime": "2019-07-30T02:59:59+00:00",
          "startDateTime": "2019-01-30T18:21:01+00:00"
        },
        "name": "Saldo atual"
      }
    ],
    "balances": [],
    "buckets": [
      {
        "name": "Saldo atual",
        "description": "Saldo de Recarga",
        "remainedAmount": 85.01,
        "totalBalance": {
          "amount": 85.01,
          "maximum": 0,
          "units": "MON"
        },
        "validFor": {
          "startDateTime": "2019-01-30T18:21:01+00:00",
          "endDateTime": "2019-07-30T02:59:59+00:00"
        },
        "status": "active",
        "additionalData": [
          {
            "key": "billing",
            "value": "FO"
          }
        ]
      }
    ],
    "products": [
      {
        "status": "ATIVO",
        "startDate": "2019-01-30T14:47:10+00:00",
        "name": "Plano Pre Diario",
        "characteristic": [
          {
            "name": "platform",
            "value": "PrePago"
          },
          {
            "name": "billing",
            "value": "NGIN"
          },
          {
            "name": "Internet",
            "value": "Franquia de 100MB por dia. Velocidade de navegação com 4G"
          },
          {
            "name": "Minutos",
            "value": "Liga├º├Áes ilimitadas de Vivo para Vivo. 10 minutos de liga├º├Áes para outras operadoras por dia"
          },
          {
            "name": "SMS",
            "value": "300 SMS para celular Vivo + 15 SMS para outras operadoras por R$1,49/dia"
          }
        ],
        "billingAccount": {
          "id": "68791834"
        },
        "productType": "Plan",
        "id": "SPPREDIARIOGSM"
      },
      {
        "status": "Suspend",
        "startDate": "2016-01-24T02:00:00+00:00",
        "productPrice": [
          {
            "price": {
              "units": "R$",
              "amount": "R$19,99/semana"
            },
            "priceType": "Real"
          }
        ],
        "name": "Vivo Turbo 2GIGA",
        "characteristic": [
          {
            "name": "Internet",
            "value": "2GB"
          },
          {
            "name": "SMS",
            "value": "ilimitado para Vivo"
          },
          {
            "name": "Min para Vivo",
            "value": "ilimitado"
          },
          {
            "name": "Min para outras operadoras",
            "value": "-"
          },
          {
            "name": "Outros benefícios",
            "value": "Assinatura Go Read revistas digitais e NBA"
          }
        ],
        "productType": "Promotion",
        "terminationDate": "2019-02-07T02:00:00+00:00",
        "id": "VTB19"
      }
    ]
  }
}