{
  "file": "/home/icaromutant/workspaces/vivo/sentinel-dialog-cherrin-cherrion/__tests__/Testes_Pre-Pago/Consulta_Promocao/9.2.032.js",
  "originalPhoneNumber": "11997866563",
  "newPhoneNumber": "11995853384",
  "apisResult": {
    "accBalances": [
      {
        "status": "active",
        "additionalData": [
          {
            "value": "FO",
            "key": "billing"
          }
        ],
        "name": "Saldo atual",
        "totalBalance": {
          "units": "MON",
          "amount": 30.01,
          "maximum": 0
        },
        "validFor": {
          "endDateTime": "2018-07-28T02:59:59+00:00",
          "startDateTime": "2018-06-27T15:32:45+00:00"
        },
        "description": "Saldo de Recarga"
      }
    ],
    "balances": [
      {
        "description": "Vivo Tudo Turbo R$14,99 - Franquia Internet",
        "inUse": true,
        "characteristic": [
          {
            "name": "lineType",
            "value": "pré"
          }
        ],
        "validFor": {
          "endDateTime": "2018-07-16T02:59:59+00:00",
          "startDateTime": "2018-07-08T17:02:21+00:00"
        },
        "mainPackage": true,
        "balanceType": "promocao",
        "type": "Promoção de 2 Gb de uma semana",
        "remainedAmount": {
          "units": "B",
          "amount": 2147483648,
          "consumed": 0,
          "maximum": 2147483648
        }
      }
    ],
    "buckets": [
      {
        "status": "active",
        "additionalData": [
          {
            "value": "FO",
            "key": "billing"
          }
        ],
        "name": "Saldo atual",
        "totalBalance": {
          "units": "MON",
          "amount": 30.01,
          "maximum": 0
        },
        "validFor": {
          "endDateTime": "2018-07-28T02:59:59+00:00",
          "startDateTime": "2018-06-27T15:32:45+00:00"
        },
        "description": "Saldo de Recarga"
      }
    ],
    "products": [
      {
        "characteristic": [
          {
            "name": "platform",
            "value": "PrePago"
          },
          {
            "name": "billing",
            "value": "NSP"
          },
          {
            "name": "Internet",
            "value": "Franquia de 100MB por dia. Velocidade de Navegação com 4G"
          },
          {
            "name": "Minutos",
            "value": "R$1,25/minuto em horário reduzido. R$2,05/minuto para fixo, R$1,94/minuto para vivo, R$1,94 por minuto para outras operadoras em horário normal"
          },
          {
            "name": "SMS",
            "value": "R$0,52/mensagem"
          }
        ],
        "startDate": "2013-08-20T11:15:28+00:00",
        "id": "31233",
        "productType": "Plan",
        "name": "Vivo Noite"
      },
      {
        "status": "Suspend",
        "startDate": "2016-01-24T02:00:00+00:00",
        "productPrice": [
          {
            "price": {
              "units": "R$",
              "amount": "R$14,99/semana"
            },
            "priceType": "Real"
          }
        ],
        "name": "Vivo Turbo 2GB",
        "characteristic": [
          {
            "name": "Internet",
            "value": "2GB"
          },
          {
            "name": "SMS",
            "value": "ilimitado para Vivo"
          },
          {
            "name": "Min para Vivo",
            "value": "ilimitado"
          },
          {
            "name": "Min para outras operadoras",
            "value": "40min para celulares locais"
          },
          {
            "name": "Outros benefícios",
            "value": "NBA, GoRead e Vivo Bem"
          },
          {
            "name": "WhatsApp para envio de mensagens, vídeos e fotos",
            "value:": "ilimitado"
          }
        ],
        "productType": "Promotion",
        "terminationDate": "2018-06-20T03:00:00+00:00",
        "id": "TRI19"
      }
    ]
  }
}