{
  "file": "/home/icaromutant/workspaces/vivo/sentinel-dialog-cherrin-cherrion/__tests__/Testes_Pre-Pago/Qual_Consumo/C1_21.058.js",
  "originalPhoneNumber": "11990503499",
  "newPhoneNumber": "11992559919",
  "apisResult": {
    "accBalances": [
      {
        "status": "active",
        "additionalData": [
          {
            "value": "FO",
            "key": "billing"
          }
        ],
        "name": "Saldo atual",
        "totalBalance": {
          "units": "MON",
          "amount": 20.67,
          "maximum": 0
        },
        "validFor": {
          "endDateTime": "2018-10-11T02:59:59+00:00",
          "startDateTime": "2018-06-12T19:04:07+00:00"
        },
        "description": "Saldo de Recarga"
      }
    ],
    "balances": [
      {
        "description": "Vivo Tudo Turbo R$7,99 - Franquia Internet",
        "inUse": false,
        "characteristic": [
          {
            "name": "lineType",
            "value": "pré"
          }
        ],
        "validFor": {
          "endDateTime": "2018-06-20T03:00:00+00:00",
          "startDateTime": "2018-06-12T19:05:11+00:00"
        },
        "mainPackage": true,
        "balanceType": "promocao",
        "type": "Promoção de 500 MB",
        "remainedAmount": {
          "units": "B",
          "amount": 0,
          "consumed": 524288000,
          "maximum": 524288000
        }
      },
      {
        "description": "Vivo Internet Redes Sociais 1GB",
        "inUse": true,
        "validFor": {
          "endDateTime": "2018-06-22T03:00:00+00:00",
          "startDateTime": "2018-06-13T14:21:36+00:00"
        },
        "mainPackage": false,
        "balanceType": "pacote",
        "type": "Vivo Internet Redes Sociais 1GB",
        "remainedAmount": {
          "units": "B",
          "amount": 0,
          "consumed": 1073741824,
          "maximum": 1073741824
        }
      },
      {
        "description": "INTERNET MOVEL DEGUSTACAO PRE",
        "inUse": true,
        "validFor": {
          "endDateTime": "2018-06-24T02:59:59+00:00",
          "startDateTime": "2018-06-19T14:25:17+00:00"
        },
        "mainPackage": false,
        "balanceType": "bonus",
        "type": "INTERNET MOVEL DEGUSTACAO PRE",
        "remainedAmount": {
          "units": "B",
          "amount": 0,
          "consumed": 31457280,
          "maximum": 31457280
        }
      }
    ],
    "buckets": [
      {
        "status": "active",
        "additionalData": [
          {
            "value": "FO",
            "key": "billing"
          }
        ],
        "name": "Saldo atual",
        "totalBalance": {
          "units": "MON",
          "amount": 20.67,
          "maximum": 0
        },
        "validFor": {
          "endDateTime": "2018-10-11T02:59:59+00:00",
          "startDateTime": "2018-06-12T19:04:07+00:00"
        },
        "description": "Saldo de Recarga"
      }
    ],
    "products": [
      {
        "status": "Active",
        "startDate": "2016-01-24T02:00:00+00:00",
        "productPrice": [
          {
            "price": {
              "units": "R$",
              "amount": "R$14,99/semana"
            },
            "priceType": "Real"
          }
        ],
        "name": "Vivo Turbo 1,5GB",
        "characteristic": [
          {
            "name": "Internet",
            "value": "1,5GB"
          },
          {
            "name": "SMS",
            "value": "ilimitado para Vivo"
          },
          {
            "name": "Min para Vivo",
            "value": "ilimitado"
          },
          {
            "name": "Min para outras operadoras",
            "value": "-"
          },
          {
            "name": "Outros benefícios",
            "value": "Assinatura Go Read revistas digitais e NBA"
          }
        ],
        "productType": "Promotion",
        "terminationDate": "2018-06-20T03:00:00+00:00",
        "id": "VTB19"
      }
    ]
  }
}