{
  "file": "/home/icaromutant/workspaces/vivo/sentinel-dialog-cherrin-cherrion/__tests__/Testes_Pre-Pago/Antecipar_Recarga/29t.02.12.js",
  "originalPhoneNumber": "11981145204",
  "newPhoneNumber": "11995737314",
  "apisResult": {
    "accBalances": [
      {
        "name": "Saldo atual",
        "description": "Saldo atual",
        "totalBalance": {
          "amount": 30,
          "maximum": 0,
          "units": "MON"
        },
        "validFor": {
          "startDateTime": "2011-04-07T23:36:19+00:00",
          "endDateTime": "2022-05-18T02:59:59+00:00"
        },
        "status": "active",
        "additionalData": [
          {
            "key": "billing",
            "value": "ALIANZA_BA"
          }
        ]
      }
    ],
    "buckets": [
      {
        "name": "Saldo de Recarga",
        "mode": -1,
        "bucketType": "balance",
        "remainedAmount": {
          "amount": 30,
          "maximum": 0,
          "units": "MON"
        },
        "validFor": {
          "startDateTime": "2011-04-07T23:36:19+00:00",
          "endDateTime": "2022-05-18T02:59:59+00:00"
        },
        "status": "active",
        "additionalData": [
          {
            "key": "billing",
            "value": "ALIANZA_BA"
          }
        ]
      },
      {
        "name": "Ligações de Vivo p/ Vivo - Vivo Turbo",
        "mode": -1,
        "bucketType": "voice",
        "remainedAmount": {
          "amount": 50,
          "consumed": 0,
          "maximum": -1,
          "units": "MIN"
        },
        "validFor": {
          "startDateTime": "2018-06-22T03:00:00+00:00",
          "endDateTime": "2022-06-30T02:59:59+00:00"
        },
        "status": "active",
        "destinations": [
          "telefonica"
        ]
      },
      {
        "name": "SMS de Vivo p/ Outras Operadoras",
        "mode": -1,
        "bucketType": "SMS",
        "remainedAmount": {
          "amount": 30,
          "consumed": 20,
          "maximum": 50,
          "units": "EVE"
        },
        "validFor": {
          "startDateTime": "2018-06-22T03:00:00+00:00",
          "endDateTime": "2022-06-30T02:59:59+00:00"
        },
        "status": "active",
        "destinations": [
          "landline"
        ]
      }
    ]
  }
}