{
  "file": "/home/icaromutant/workspaces/vivo/sentinel-dialog-cherrin-cherrion/__tests__/Testes_Controle/Consulta_Fatura/13v.3.19.js",
  "originalPhoneNumber": "11997290003",
  "newPhoneNumber": "11993958788",
  "apisResult": {
    "accBalances": [
      {
        "name": "Saldo atual",
        "description": "Saldo de Recarga",
        "remainedAmount": 50,
        "totalBalance": {
          "amount": 50,
          "maximum": 0,
          "units": "MON"
        },
        "validFor": {
          "startDateTime": "2019-02-19T13:50:07+00:00",
          "endDateTime": "2019-06-20T02:59:59+00:00"
        },
        "status": "active",
        "additionalData": [
          {
            "key": "billing",
            "value": "ATLYS"
          }
        ]
      }
    ],
    "balances": [],
    "invoices": [
      {
        "id": "11997290003-0030253600-20190205",
        "href": "/invoices/11997290003-0030253600-20190205",
        "type": "Fatura",
        "country": "Brasil",
        "documentLinks": {
          "invoiceResourceType": [
            {
              "type": "pdf",
              "urls": "/invoices/11997290003-0030253600-20190205/files/pdf"
            },
            {
              "type": "image",
              "urls": "/invoices/11997290003-0030253600-20190205/files/image"
            },
            {
              "type": "email",
              "urls": "/invoices/11997290003-0030253600-20190205/files/email"
            }
          ]
        },
        "msisdn": "11997290003",
        "billingAccount": {
          "id": "0030253600",
          "name": "VIVOCTRLF28N"
        },
        "clientPlatformType": "ATY",
        "monthRef": "012019",
        "billingPeriod": {
          "codeCicle": "0O",
          "startDateTime": "2018-12-24T02:00:00Z",
          "endDateTime": "2019-01-23T02:00:00Z"
        },
        "dueDate": "2019-02-21T02:00:00Z",
        "totalAmount": {
          "amount": "59.99",
          "units": "R$"
        },
        "status": "on hold"
      }
    ],
    "products": [
      {
        "id": "VIVOCTRLF28N",
        "name": "VIVO CTRL DIGITAL-3,5GB ILIM",
        "startDate": "2018-12-26T02:00:00+00:00",
        "productType": "Plan",
        "billingAccount": {
          "id": "0030253600"
        },
        "characteristic": [
          {
            "name": "platform",
            "value": "Controle"
          },
          {
            "name": "billing",
            "value": "ATY"
          },
          {
            "name": "Internet",
            "value": "Franquia de 3GB. Velocidade de navegação com 4G"
          },
          {
            "name": "Minutos",
            "value": "Ligações ilimitadas de Vivo para Vivo. Ilimitado local para outras operadoras. Ligações ilimitadas para fixos de outras operadoras"
          },
          {
            "name": "SMS",
            "value": "Ilimitado para qualquer operadora em todo o Brasil"
          },
          {
            "name": "Combo Digital",
            "value": "Combo Digital (Kantoo, Vivo GoRead)"
          }
        ],
        "status": "DESLIGADO PARCIALMENTE"
      }
    ]
  }
}