{
  "file": "/home/icaromutant/workspaces/vivo/sentinel-dialog-cherrin-cherrion/__tests__/Testes_Pre-Pago/Consulta_Promocao/9.2.040.js",
  "originalPhoneNumber": "11987343832",
  "newPhoneNumber": "11994310104",
  "apisResult": {
    "accBalances": [
      {
        "status": "active",
        "additionalData": [
          {
            "value": "FO",
            "key": "billing"
          }
        ],
        "name": "Saldo atual",
        "totalBalance": {
          "units": "MON",
          "amount": 3.01,
          "maximum": 0
        },
        "validFor": {
          "endDateTime": "2018-07-28T02:59:59+00:00",
          "startDateTime": "2018-06-27T15:32:45+00:00"
        },
        "description": "Saldo de Recarga"
      }
    ],
    "balances": [
      {
        "description": "Vivo ON - 1GB",
        "inUse": false,
        "characteristic": [
          {
            "name": "lineType",
            "value": "pré"
          }
        ],
        "validFor": {
          "endDateTime": "2018-07-13T02:59:59+00:00",
          "startDateTime": "2018-06-12T18:40:32+00:00"
        },
        "mainPackage": false,
        "balanceType": "promocao",
        "type": "Promoção de 1GB",
        "remainedAmount": {
          "units": "B",
          "amount": 1073741824,
          "consumed": 0,
          "maximum": 1073741824
        }
      },
      {
        "description": "PACOTE AVULSO DE INTERNET 400MB 4G PRE-PAGO",
        "inUse": true,
        "validFor": {
          "endDateTime": "2018-06-20T02:59:59+00:00",
          "startDateTime": "2018-06-12T19:44:36+00:00"
        },
        "mainPackage": false,
        "balanceType": "pacote",
        "type": "PACOTE AVULSO DE INTERNET 400MB 4G PRE-PAGO",
        "remainedAmount": {
          "units": "B",
          "amount": 838860800,
          "consumed": 0,
          "maximum": 838860800
        }
      },
      {
        "description": "PACOTE AVULSO DE INTERNET 400MB 4G PRE-PAGO",
        "inUse": true,
        "validFor": {
          "endDateTime": "2018-06-20T02:59:59+00:00",
          "startDateTime": "2018-06-12T19:44:36+00:00"
        },
        "mainPackage": false,
        "balanceType": "pacote",
        "type": "PACOTE AVULSO DE INTERNET 400MB 4G PRE-PAGO",
        "remainedAmount": {
          "units": "B",
          "amount": 419430400,
          "consumed": 0,
          "maximum": 419430400
        }
      }
    ],
    "buckets": [
      {
        "status": "active",
        "additionalData": [
          {
            "value": "FO",
            "key": "billing"
          }
        ],
        "name": "Saldo atual",
        "totalBalance": {
          "units": "MON",
          "amount": 3.01,
          "maximum": 0
        },
        "validFor": {
          "endDateTime": "2018-07-28T02:59:59+00:00",
          "startDateTime": "2018-06-27T15:32:45+00:00"
        },
        "description": "Saldo de Recarga"
      }
    ],
    "products": [
      {
        "characteristic": [
          {
            "name": "platform",
            "value": "PrePago"
          },
          {
            "name": "billing",
            "value": "NSP"
          },
          {
            "name": "Internet",
            "value": "Franquia de 100MB por dia. Velocidade de Navegação com 4G"
          },
          {
            "name": "Minutos",
            "value": "R$1,99/minuto na área de cobertura. Adicional por chamada realizada ou recebida fora da área de registro R$1,99."
          },
          {
            "name": "SMS",
            "value": "R$0,52/mensagem"
          }
        ],
        "startDate": "2010-01-11T18:57:48+00:00",
        "id": "50125",
        "productType": "Plan",
        "name": "Vivo Toda Hora"
      },
      {
        "status": "Active",
        "startDate": "2016-04-25T03:00:00+00:00",
        "productPrice": [
          {
            "price": {
              "units": "R$",
              "amount": "R$19,90 na adesão"
            },
            "priceType": "Real"
          }
        ],
        "name": "Vivo ON",
        "characteristic": [
          {
            "name": "Internet",
            "value": "25MB / R$5,00"
          },
          {
            "name": "SMS",
            "value": "ilimitado / R$15,00"
          },
          {
            "name": "Min para Vivo",
            "value": "25min / R$5,00"
          },
          {
            "name": "Outros benefícios",
            "value": "A partir de R$5,00 bônus de internet e voz"
          }
        ],
        "productType": "Promotion",
        "terminationDate": "2018-07-12T03:00:00+00:00",
        "id": "FPR10"
      }
    ]
  }
}