{
  "file": "/home/icaromutant/workspaces/vivo/sentinel-dialog-cherrin-cherrion/__tests__/Testes_Pre-Pago/Consulta_Plano_Com_Promocao_Vencida/8.4.013.js",
  "originalPhoneNumber": "11999999904",
  "newPhoneNumber": "11994295261",
  "apisResult": {
    "accBalances": [],
    "balances": [],
    "buckets": [],
    "products": [
      {
        "characteristic": [
          {
            "name": "platform",
            "value": "PrePago"
          },
          {
            "name": "billing",
            "value": "NGIN"
          },
          {
            "name": "Internet",
            "value": "Franquia de 100MB por dia. Velocidade de navegação com 4G"
          },
          {
            "name": "Minutos",
            "value": "Ligações ilimitadas de Vivo para Vivo. 10 minutos de ligações para outras operadoras por dia"
          },
          {
            "name": "SMS",
            "value": "300 SMS para celular Vivo + 15 SMS para outras operadoras por R$1,49/dia"
          }
        ],
        "startDate": "2018-08-02T14:50:27+00:00",
        "id": "SPPREDIARIOGSM",
        "productType": "Plan",
        "name": "Plano Pre Diario"
      },
      {
        "status": "Suspend",
        "startDate": "2016-01-24T02:00:00+00:00",
        "productPrice": [
          {
            "price": {
              "units": "R$",
              "amount": "R$8,99/semana"
            },
            "priceType": "Real"
          }
        ],
        "name": "Vivo Turbo 200min",
        "characteristic": [
          {
            "name": "Internet",
            "value": "-"
          },
          {
            "name": "SMS",
            "value": "ilimitado para Vivo"
          },
          {
            "name": "Min para Vivo",
            "value": "ilimitado"
          },
          {
            "name": "Min para outras operadoras",
            "value": "200min"
          },
          {
            "name": "Outros benefícios",
            "value": "-"
          },
          {
            "name": "WhatsApp para envio de mensagens, vídeos e fotos",
            "value:": "ilimitado"
          }
        ],
        "productType": "Promotion",
        "terminationDate": "2018-06-20T03:00:00+00:00",
        "id": "TRI20"
      }
    ]
  }
}