{
  "file": "/home/icaromutant/workspaces/vivo/sentinel-dialog-cherrin-cherrion/__tests__/Testes_Pre-Pago/Internet_Sem_Especificar/7.1.14.js",
  "originalPhoneNumber": "11996770059",
  "newPhoneNumber": "11996873978",
  "apisResult": {
    "accBalances": [],
    "balances": [
      {
        "description": "Vivo Tudo Turbo R$7,99 - Franquia Internet",
        "inUse": false,
        "characteristic": [
          {
            "name": "lineType",
            "value": "pré"
          }
        ],
        "validFor": {
          "endDateTime": "2018-07-13T03:00:00+00:00",
          "startDateTime": "2018-07-05T14:07:06+00:00"
        },
        "mainPackage": true,
        "balanceType": "promocao",
        "type": "Promoção de 500 MB",
        "remainedAmount": {
          "units": "B",
          "amount": 0,
          "consumed": 524288000,
          "maximum": 524288000
        }
      },
      {
        "description": "PACOTE AVULSO DE INTERNET 150MB 4G PRE-PAGO",
        "inUse": false,
        "validFor": {
          "endDateTime": "2018-07-13T02:59:59+00:00",
          "startDateTime": "2018-07-05T16:59:38+00:00"
        },
        "mainPackage": false,
        "balanceType": "pacote",
        "type": "PACOTE AVULSO DE INTERNET 150MB 4G PRE-PAGO",
        "remainedAmount": {
          "units": "B",
          "amount": 0,
          "consumed": 157286400,
          "maximum": 157286400
        }
      }
    ],
    "buckets": [],
    "products": []
  }
}