{
  "file": "/home/icaromutant/workspaces/vivo/sentinel-dialog-cherrin-cherrion/__tests__/Testes_Pre-Pago/Desambigua-Qual Consumo/23.01.15.js",
  "originalPhoneNumber": "11996800033",
  "newPhoneNumber": "11996393243",
  "apisResult": {
    "accBalances": [
      {
        "status": "active",
        "additionalData": [
          {
            "value": "FO",
            "key": "billing"
          }
        ],
        "name": "Saldo atual",
        "totalBalance": {
          "units": "MON",
          "amount": 9.03,
          "maximum": 0
        },
        "validFor": {
          "endDateTime": "2018-09-11T02:59:59+00:00",
          "startDateTime": "2018-06-12T18:22:10+00:00"
        },
        "description": "Saldo de Recarga"
      }
    ],
    "balances": [
      {
        "description": "Vivo Tudo Turbo R$7,99 - Franquia Internet + Vivo Tudo Turbo R$7,99 - Franquia Internet + Vivo Turbo R$14,99 -Franquia Internet",
        "inUse": true,
        "characteristic": [
          {
            "name": "lineType",
            "value": "pré"
          }
        ],
        "validFor": {
          "endDateTime": "2018-06-23T03:00:00+00:00",
          "startDateTime": "2018-06-12T18:22:24+00:00"
        },
        "mainPackage": true,
        "balanceType": "promocao",
        "type": "Promoção de 2.98 GB",
        "remainedAmount": {
          "units": "B",
          "amount": 3196059648,
          "consumed": 0,
          "maximum": 3196059648
        }
      },
      {
        "description": "INTERNET MOVEL DEGUSTACAO PRE",
        "inUse": true,
        "validFor": {
          "endDateTime": "2018-06-24T02:59:59+00:00",
          "startDateTime": "2018-06-19T14:25:17+00:00"
        },
        "mainPackage": false,
        "balanceType": "bonus",
        "type": "INTERNET MOVEL DEGUSTACAO PRE",
        "remainedAmount": {
          "units": "B",
          "amount": 31457280,
          "consumed": 0,
          "maximum": 31457280
        }
      }
    ],
    "buckets": [
      {
        "status": "active",
        "additionalData": [
          {
            "value": "FO",
            "key": "billing"
          }
        ],
        "name": "Saldo atual",
        "totalBalance": {
          "units": "MON",
          "amount": 9.03,
          "maximum": 0
        },
        "validFor": {
          "endDateTime": "2018-09-11T02:59:59+00:00",
          "startDateTime": "2018-06-12T18:22:10+00:00"
        },
        "description": "Saldo de Recarga"
      }
    ],
    "products": [
      {
        "status": "Active",
        "startDate": "2016-01-24T02:00:00+00:00",
        "productPrice": [
          {
            "price": {
              "units": "R$",
              "amount": "R$7,99/semana"
            },
            "priceType": "Real"
          }
        ],
        "name": "Vivo Turbo 300MB",
        "characteristic": [
          {
            "name": "Internet",
            "value": "300MB"
          },
          {
            "name": "SMS",
            "value": "ilimitado para Vivo"
          },
          {
            "name": "Min para Vivo",
            "value": "ilimitado"
          },
          {
            "name": "Min para outras operadoras",
            "value": "-"
          },
          {
            "name": "Outros benefícios",
            "value": "-"
          }
        ],
        "productType": "Promotion",
        "terminationDate": "2018-06-23T03:00:00+00:00",
        "id": "TRI13"
      }
    ]
  }
}