{
  "file": "/home/icaromutant/workspaces/vivo/sentinel-dialog-cherrin-cherrion/__tests__/Testes_Pre-Pago/Contesta_Uso_De_Dados/C1_21.011.js",
  "originalPhoneNumber": "11996145374",
  "newPhoneNumber": "11992745857",
  "apisResult": {
    "accBalances": [
      {
        "status": "active",
        "additionalData": [
          {
            "value": "FO",
            "key": "billing"
          }
        ],
        "name": "Saldo atual",
        "totalBalance": {
          "units": "MON",
          "amount": 52.52,
          "maximum": 0
        },
        "validFor": {
          "endDateTime": "2018-10-12T02:59:59+00:00",
          "startDateTime": "2018-06-12T20:41:42+00:00"
        },
        "description": "Saldo de Recarga"
      }
    ],
    "balances": [
      {
        "description": "PACOTE AVULSO DE INTERNET 400MB 4G PRE-PAGO",
        "inUse": true,
        "characteristic": [
          {
            "name": "lineType",
            "value": "pré"
          }
        ],
        "validFor": {
          "endDateTime": "2018-06-21T02:59:59+00:00",
          "startDateTime": "2018-06-13T14:14:08+00:00"
        },
        "mainPackage": false,
        "balanceType": "pacote",
        "type": "PACOTE AVULSO DE INTERNET 400MB 4G PRE-PAGO",
        "remainedAmount": {
          "units": "B",
          "amount": 419430400,
          "consumed": 0,
          "maximum": 419430400
        }
      },
      {
        "description": "Vivo ON - Bonus 100 MB",
        "inUse": false,
        "validFor": {
          "endDateTime": "2018-07-13T02:59:59+00:00",
          "startDateTime": "2018-06-12T21:21:32+00:00"
        },
        "mainPackage": false,
        "balanceType": "promocao",
        "type": "Vivo ON - Bonus 100 MB",
        "remainedAmount": {
          "units": "B",
          "amount": 104857600,
          "consumed": 0,
          "maximum": 104857600
        }
      },
      {
        "description": "Vivo ON - Bonus 350 MB",
        "inUse": false,
        "validFor": {
          "endDateTime": "2018-07-14T02:59:59+00:00",
          "startDateTime": "2018-06-13T14:13:28+00:00"
        },
        "mainPackage": true,
        "balanceType": "promocao",
        "type": "Vivo ON - Bonus 350 MB",
        "remainedAmount": {
          "units": "B",
          "amount": 314572800,
          "consumed": 0,
          "maximum": 314572800
        }
      },
      {
        "description": "Vivo ON - Bonus 25MB",
        "inUse": false,
        "validFor": {
          "endDateTime": "2018-07-13T02:59:59+00:00",
          "startDateTime": "2018-06-12T23:22:53+00:00"
        },
        "mainPackage": false,
        "balanceType": "promocao",
        "type": "Vivo ON - Bonus 25MB",
        "remainedAmount": {
          "units": "B",
          "amount": 78643200,
          "consumed": 0,
          "maximum": 78643200
        }
      }
    ],
    "buckets": [
      {
        "status": "active",
        "additionalData": [
          {
            "value": "FO",
            "key": "billing"
          }
        ],
        "name": "Saldo atual",
        "totalBalance": {
          "units": "MON",
          "amount": 52.52,
          "maximum": 0
        },
        "validFor": {
          "endDateTime": "2018-10-12T02:59:59+00:00",
          "startDateTime": "2018-06-12T20:41:42+00:00"
        },
        "description": "Saldo de Recarga"
      }
    ],
    "products": [
      {
        "status": "Active",
        "startDate": "2016-04-25T03:00:00+00:00",
        "productPrice": [
          {
            "price": {
              "units": "R$",
              "amount": "R$19,90 na adesão"
            },
            "priceType": "Real"
          }
        ],
        "name": "Vivo ON",
        "characteristic": [
          {
            "name": "Internet",
            "value": "25MB / R$5,00"
          },
          {
            "name": "SMS",
            "value": "ilimitado / R$15,00"
          },
          {
            "name": "Min para Vivo",
            "value": "25min / R$5,00"
          },
          {
            "name": "Outros benefícios",
            "value": "A partir de R$5,00 bônus de internet e voz"
          }
        ],
        "productType": "Promotion",
        "terminationDate": "2018-07-13T03:00:00+00:00",
        "id": "FPR10"
      }
    ]
  }
}