{
  "file": "/home/icaromutant/workspaces/vivo/sentinel-dialog-cherrin-cherrion/__tests__/Testes_Pre-Pago/Contesta_Promocao/28.2.06.js",
  "originalPhoneNumber": "16996001178",
  "newPhoneNumber": "16994658712",
  "apisResult": {
    "accBalances": [
      {
        "status": "active",
        "additionalData": [
          {
            "value": "FO",
            "key": "billing"
          }
        ],
        "remainedAmount": 10.01,
        "totalBalance": {
          "units": "MON",
          "amount": 10.01,
          "maximum": 0
        },
        "description": "Saldo de Recarga",
        "validFor": {
          "endDateTime": "2019-03-17T02:59:59+00:00",
          "startDateTime": "2019-01-30T20:08:29+00:00"
        },
        "name": "Saldo atual"
      }
    ],
    "balances": [
      {
        "description": "Vivo Tudo Turbo R$7,99 - Franquia Internet",
        "inUse": false,
        "characteristic": [
          {
            "name": "lineType",
            "value": "pré"
          }
        ],
        "validFor": {
          "endDateTime": "2018-06-20T03:00:00+00:00",
          "startDateTime": "2018-06-12T18:57:10+00:00"
        },
        "mainPackage": true,
        "balanceType": "promocao",
        "type": "Promoção de 1 GB e 500 MB Quinzenal",
        "remainedAmount": {
          "units": "B",
          "amount": 0,
          "consumed": 1572864000,
          "maximum": 1572864000
        }
      }
    ],
    "products": [
      {
        "status": "ATIVO",
        "startDate": "2019-01-30T14:49:29+00:00",
        "name": "Plano Pre Diario",
        "characteristic": [
          {
            "name": "platform",
            "value": "PrePago"
          },
          {
            "name": "billing",
            "value": "NGIN"
          },
          {
            "name": "Internet",
            "value": "Franquia de 100MB por dia. Velocidade de navega├º├úo com 4G"
          },
          {
            "name": "Minutos",
            "value": "Ligacoes ilimitadas de Vivo para Vivo. 10 minutos de liga├º├Áes para outras operadoras por dia"
          },
          {
            "name": "SMS",
            "value": "300 SMS para celular Vivo + 15 SMS para outras operadoras por R$1,49/dia"
          }
        ],
        "billingAccount": {
          "id": "68791856"
        },
        "productType": "Plan",
        "id": "SPPREDIARIOGSM"
      },
      {
        "status": "Ativo",
        "startDate": "2016-01-24T02:00:00+00:00",
        "productPrice": [
          {
            "price": {
              "units": "R$",
              "amount": "R$9,99/15 dias"
            },
            "priceType": "Real"
          }
        ],
        "name": "Vivo Turbo 1.5GIGA",
        "characteristic": [
          {
            "name": "Internet",
            "value": "1,5GB"
          },
          {
            "name": "SMS",
            "value": "ilimitado para Vivo"
          },
          {
            "name": "Min para Vivo",
            "value": "ilimitado"
          },
          {
            "name": "Min para outras operadoras",
            "value": "-"
          },
          {
            "name": "Outros benefícios",
            "value": "Assinatura Go Read revistas digitais e NBA"
          }
        ],
        "productType": "Promotion",
        "terminationDate": "2019-02-07T02:00:00+00:00",
        "id": "V4G15"
      }
    ]
  }
}