{
  "file": "/home/icaromutant/workspaces/vivo/sentinel-dialog-cherrin-cherrion/__tests__/Testes_Pre-Pago/Conhecer_PROMOCAO_Especifica/28.4.39.js",
  "originalPhoneNumber": "16900005081",
  "newPhoneNumber": "16999769141",
  "apisResult": {
    "accBalances": [
      {
        "status": "active",
        "additionalData": [
          {
            "value": "FO",
            "key": "billing"
          }
        ],
        "remainedAmount": 91.01,
        "totalBalance": {
          "units": "MON",
          "amount": 91.01,
          "maximum": 0
        },
        "description": "Saldo de Recarga",
        "validFor": {
          "endDateTime": "2019-07-30T02:59:59+00:00",
          "startDateTime": "2019-01-30T13:51:28+00:00"
        },
        "name": "Saldo atual"
      }
    ]
  }
}