{
  "file": "/home/icaromutant/workspaces/vivo/sentinel-dialog-cherrin-cherrion/__tests__/Testes_Pre-Pago/Contesta_Promocao/28.2.09.js",
  "originalPhoneNumber": "81931039989",
  "newPhoneNumber": "81992672043",
  "apisResult": {
    "accBalances": [
      {
        "status": "active",
        "additionalData": [
          {
            "value": "FO",
            "key": "billing"
          }
        ],
        "remainedAmount": 60.01,
        "totalBalance": {
          "units": "MON",
          "amount": 60.01,
          "maximum": 0
        },
        "description": "Saldo de Recarga",
        "validFor": {
          "endDateTime": "2019-07-30T02:59:59+00:00",
          "startDateTime": "2019-01-30T14:52:32+00:00"
        },
        "name": "Saldo atual"
      }
    ],
    "balances": [
      {
        "description": "Vivo Turbo R$ 39,99 - Franquia Internet",
        "inUse": true,
        "characteristic": [
          {
            "name": "lineType",
            "value": "pré"
          }
        ],
        "validFor": {
          "endDateTime": "2019-03-02T03:00:00+00:00",
          "startDateTime": "2019-01-30T18:57:49+00:00"
        },
        "mainPackage": true,
        "balanceType": "promocao",
        "type": "Promoção de 2 GB",
        "remainedAmount": {
          "units": "B",
          "amount": 2147483648,
          "consumed": 0,
          "maximum": 2147483648
        }
      }
    ],
    "products": [
      {
        "status": "ATIVO",
        "startDate": "2019-01-30T14:55:45+00:00",
        "name": "Plano Toda Hora - Movel",
        "characteristic": [
          {
            "name": "platform",
            "value": "PrePago"
          },
          {
            "name": "billing",
            "value": "NGIN"
          }
        ],
        "billingAccount": {
          "id": "68791845"
        },
        "productType": "Plan",
        "id": "NEVIVOTODAGSM"
      },
      {
        "status": "Suspend",
        "startDate": "2016-01-24T02:00:00+00:00",
        "productPrice": [
          {
            "price": {
              "units": "R$",
              "amount": "R$39,99/mês"
            },
            "priceType": "Real"
          }
        ],
        "name": "Vivo Turbo Mensal 2GB ",
        "characteristic": [
          {
            "name": "Internet",
            "value": "2GB"
          },
          {
            "name": "SMS",
            "value": "ilimitado para Vivo"
          },
          {
            "name": "Min para Vivo",
            "value": "ilimitado"
          },
          {
            "name": "Min para outras operadoras",
            "value": "50 min para celular local"
          },
          {
            "name": "Outros benefícios",
            "value": "Bônus de 1GB/7 dias para quem recarregar R$30 ou mais no m├¬s"
          }
        ],
        "productType": "Promotion",
        "terminationDate": "2019-03-02T03:00:00+00:00",
        "id": "VTB39"
      }
    ]
  }
}